{
    "dashboard": {
	"annotations": {
	    "list": [
		{
		    "builtIn": 1,
		    "datasource": {
			"type": "grafana",
			"uid": "-- Grafana --"
		    },
		    "enable": true,
		    "hide": true,
		    "iconColor": "rgba(0, 211, 255, 1)",
		    "name": "Annotations & Alerts",
		    "type": "dashboard"
		}
	    ]
	},
	"editable": true,
	"fiscalYearStartMonth": 0,
	"graphTooltip": 1,
	"id": null,
	"links": [],
	"liveNow": false,
	"panels": [
	    {
		"datasource": {
		    "type": "influxdb",
		    "uid": "OzcR1Jo4j"
		},
		"description": "",
		"fieldConfig": {
		    "defaults": {
			"color": {
			    "mode": "palette-classic"
			},
			"custom": {
			    "axisCenteredZero": false,
			    "axisColorMode": "text",
			    "axisLabel": "",
			    "axisPlacement": "auto",
			    "barAlignment": 0,
			    "drawStyle": "line",
			    "fillOpacity": 0,
			    "gradientMode": "none",
			    "hideFrom": {
				"legend": false,
				"tooltip": false,
				"viz": false
			    },
			    "insertNulls": false,
			    "lineInterpolation": "linear",
			    "lineWidth": 1,
			    "pointSize": 5,
			    "scaleDistribution": {
				"type": "linear"
			    },
			    "showPoints": "auto",
			    "spanNulls": false,
			    "stacking": {
				"group": "A",
				"mode": "none"
			    },
			    "thresholdsStyle": {
				"mode": "off"
			    }
			},
			"mappings": [],
			"thresholds": {
			    "mode": "absolute",
			    "steps": [
				{
				    "color": "green",
				    "value": null
				},
				{
				    "color": "red",
				    "value": 80
				}
			    ]
			}
		    },
		    "overrides": [
			{
			    "matcher": {
				"id": "byName",
				"options": "SINR"
			    },
			    "properties": [
				{
				    "id": "custom.axisPlacement",
				    "value": "right"
				}
			    ]
			}
		    ]
		},
		"gridPos": {
		    "h": 9,
		    "w": 12,
		    "x": 0,
		    "y": 0
		},
		"id": 1,
		"options": {
		    "legend": {
			"calcs": [],
			"displayMode": "list",
			"placement": "bottom",
			"showLegend": true
		    },
		    "tooltip": {
			"mode": "multi",
			"sort": "none"
		    }
		},
		"targets": [
		    {
			"alias": "RSRP",
			"datasource": {
			    "type": "influxdb",
			    "uid": "OzcR1Jo4j"
			},
			"groupBy": [],
			"hide": false,
			"measurement": "uemetrics",
			"orderByTime": "ASC",
			"policy": "autogen",
			"refId": "A",
			"resultFormat": "time_series",
			"select": [
			    [
				{
				    "params": [
					"RSRP"
				    ],
				    "type": "field"
				}
			    ]
			],
			"tags": [
			    {
				"key": "host::tag",
				"operator": "=~",
				"value": "/^$Host$/"
			    }
			]
		    },
		    {
			"alias": "RSRQ",
			"datasource": {
			    "type": "influxdb",
			    "uid": "OzcR1Jo4j"
			},
			"groupBy": [],
			"hide": false,
			"measurement": "uemetrics",
			"orderByTime": "ASC",
			"policy": "autogen",
			"refId": "B",
			"resultFormat": "time_series",
			"select": [
			    [
				{
				    "params": [
					"RSRQ"
				    ],
				    "type": "field"
				}
			    ]
			],
			"tags": [
			    {
				"key": "host::tag",
				"operator": "=~",
				"value": "/^$Host$/"
			    }
			]
		    },
		    {
			"alias": "SINR",
			"datasource": {
			    "type": "influxdb",
			    "uid": "OzcR1Jo4j"
			},
			"groupBy": [],
			"hide": false,
			"measurement": "uemetrics",
			"orderByTime": "ASC",
			"policy": "autogen",
			"refId": "C",
			"resultFormat": "time_series",
			"select": [
			    [
				{
				    "params": [
					"SINR"
				    ],
				    "type": "field"
				}
			    ]
			],
			"tags": [
			    {
				"key": "host::tag",
				"operator": "=~",
				"value": "/^$Host$/"
			    }
			]
		    }
		],
		"title": "RSRQ/RSRP/SINR",
		"type": "timeseries"
	    },
	    {
		"autoZoom": true,
		"datasource": {
		    "type": "influxdb",
		    "uid": "OzcR1Jo4j"
		},
		"defaultLayer": "OpenStreetMap",
		"gridPos": {
		    "h": 21,
		    "w": 12,
		    "x": 12,
		    "y": 0
		},
		"id": 2,
		"lineColor": "red",
		"maxDataPoints": 500,
		"pointColor": "royalblue",
		"scrollWheelZoom": false,
		"showLayerChanger": true,
		"targets": [
		    {
			"alias": "latitude",
			"datasource": {
			    "type": "influxdb",
			    "uid": "OzcR1Jo4j"
			},
			"groupBy": [],
			"measurement": "gpsd_tpv",
			"orderByTime": "ASC",
			"policy": "autogen",
			"refId": "A",
			"resultFormat": "time_series",
			"select": [
			    [
				{
				    "params": [
					"b'lat'"
				    ],
				    "type": "field"
				}
			    ]
			],
			"tags": [
			    {
				"key": "host::tag",
				"operator": "=~",
				"value": "/^$Host$/"
			    }
			]
		    },
		    {
			"alias": "Longitude",
			"datasource": {
			    "type": "influxdb",
			    "uid": "OzcR1Jo4j"
			},
			"groupBy": [],
			"hide": false,
			"measurement": "gpsd_tpv",
			"orderByTime": "ASC",
			"policy": "autogen",
			"refId": "B",
			"resultFormat": "time_series",
			"select": [
			    [
				{
				    "params": [
					"b'lon'"
				    ],
				    "type": "field"
				}
			    ]
			],
			"tags": [
			    {
				"key": "host::tag",
				"operator": "=~",
				"value": "/^$Host$/"
			    }
			]
		    }
		],
		"title": "Map",
		"type": "pr0ps-trackmap-panel"
	    },
	    {
		"datasource": {
		    "type": "influxdb",
		    "uid": "OzcR1Jo4j"
		},
		"description": "",
		"fieldConfig": {
		    "defaults": {
			"color": {
			    "mode": "palette-classic"
			},
			"custom": {
			    "axisCenteredZero": false,
			    "axisColorMode": "text",
			    "axisLabel": "",
			    "axisPlacement": "auto",
			    "barAlignment": 0,
			    "drawStyle": "points",
			    "fillOpacity": 0,
			    "gradientMode": "none",
			    "hideFrom": {
				"legend": false,
				"tooltip": false,
				"viz": false
			    },
			    "insertNulls": false,
			    "lineInterpolation": "linear",
			    "lineWidth": 1,
			    "pointSize": 3,
			    "scaleDistribution": {
				"type": "linear"
			    },
			    "showPoints": "auto",
			    "spanNulls": false,
			    "stacking": {
				"group": "A",
				"mode": "none"
			    },
			    "thresholdsStyle": {
				"mode": "off"
			    }
			},
			"decimals": 0,
			"mappings": [
			    {
				"options": {
				    "304": {
					"index": 0,
					"text": "EBC"
				    },
				    "306": {
					"index": 1,
					"text": "Wasatch"
				    }
				},
				"type": "value"
			    },
			    {
				"options": {
				    "match": "null",
				    "result": {
					"index": 2
				    }
				},
				"type": "special"
			    }
			],
			"max": 306,
			"min": 304,
			"thresholds": {
			    "mode": "absolute",
			    "steps": [
				{
				    "color": "green",
				    "value": null
				},
				{
				    "color": "red",
				    "value": 80
				}
			    ]
			},
			"unit": "none"
		    },
		    "overrides": []
		},
		"gridPos": {
		    "h": 4,
		    "w": 12,
		    "x": 0,
		    "y": 9
		},
		"id": 8,
		"options": {
		    "legend": {
			"calcs": [],
			"displayMode": "list",
			"placement": "bottom",
			"showLegend": true
		    },
		    "tooltip": {
			"mode": "multi",
			"sort": "none"
		    }
		},
		"targets": [
		    {
			"alias": "Access Point",
			"datasource": {
			    "type": "influxdb",
			    "uid": "OzcR1Jo4j"
			},
			"groupBy": [],
			"measurement": "uemetrics",
			"orderByTime": "ASC",
			"policy": "autogen",
			"refId": "A",
			"resultFormat": "time_series",
			"select": [
			    [
				{
				    "params": [
					"PCID"
				    ],
				    "type": "field"
				}
			    ]
			],
			"tags": [
			    {
				"key": "host::tag",
				"operator": "=~",
				"value": "/^$Host$/"
			    }
			]
		    }
		],
		"title": "Access Point",
		"type": "timeseries"
	    },
	    {
		"datasource": {
		    "type": "influxdb",
		    "uid": "OzcR1Jo4j"
		},
		"description": "",
		"fieldConfig": {
		    "defaults": {
			"color": {
			    "mode": "palette-classic"
			},
			"custom": {
			    "axisCenteredZero": false,
			    "axisColorMode": "text",
			    "axisLabel": "",
			    "axisPlacement": "auto",
			    "barAlignment": 0,
			    "drawStyle": "line",
			    "fillOpacity": 0,
			    "gradientMode": "none",
			    "hideFrom": {
				"legend": false,
				"tooltip": false,
				"viz": false
			    },
			    "insertNulls": false,
			    "lineInterpolation": "linear",
			    "lineWidth": 1,
			    "pointSize": 5,
			    "scaleDistribution": {
				"log": 2,
				"type": "log"
			    },
			    "showPoints": "auto",
			    "spanNulls": false,
			    "stacking": {
				"group": "A",
				"mode": "none"
			    },
			    "thresholdsStyle": {
				"mode": "off"
			    }
			},
			"mappings": [],
			"max": 2000,
			"thresholds": {
			    "mode": "absolute",
			    "steps": [
				{
				    "color": "green",
				    "value": null
				},
				{
				    "color": "red",
				    "value": 80
				}
			    ]
			},
			"unit": "ms"
		    },
		    "overrides": []
		},
		"gridPos": {
		    "h": 8,
		    "w": 12,
		    "x": 0,
		    "y": 13
		},
		"id": 6,
		"options": {
		    "legend": {
			"calcs": [],
			"displayMode": "list",
			"placement": "bottom",
			"showLegend": true
		    },
		    "tooltip": {
			"mode": "multi",
			"sort": "none"
		    }
		},
		"targets": [
		    {
			"alias": "Ping Latency",
			"datasource": {
			    "type": "influxdb",
			    "uid": "OzcR1Jo4j"
			},
			"groupBy": [],
			"measurement": "ping",
			"orderByTime": "ASC",
			"policy": "autogen",
			"refId": "A",
			"resultFormat": "time_series",
			"select": [
			    [
				{
				    "params": [
					"latency"
				    ],
				    "type": "field"
				}
			    ]
			],
			"tags": [
			    {
				"key": "host::tag",
				"operator": "=~",
				"value": "/^$Host$/"
			    }
			]
		    }
		],
		"title": "Latency",
		"type": "timeseries"
	    },
	    {
		"datasource": {
		    "type": "influxdb",
		    "uid": "OzcR1Jo4j"
		},
		"fieldConfig": {
		    "defaults": {
			"color": {
			    "mode": "palette-classic"
			},
			"custom": {
			    "axisCenteredZero": false,
			    "axisColorMode": "text",
			    "axisLabel": "",
			    "axisPlacement": "auto",
			    "barAlignment": 0,
			    "drawStyle": "line",
			    "fillOpacity": 0,
			    "gradientMode": "none",
			    "hideFrom": {
				"legend": false,
				"tooltip": false,
				"viz": false
			    },
			    "insertNulls": false,
			    "lineInterpolation": "linear",
			    "lineWidth": 1,
			    "pointSize": 5,
			    "scaleDistribution": {
				"type": "linear"
			    },
			    "showPoints": "auto",
			    "spanNulls": false,
			    "stacking": {
				"group": "A",
				"mode": "none"
			    },
			    "thresholdsStyle": {
				"mode": "off"
			    }
			},
			"mappings": [],
			"thresholds": {
			    "mode": "absolute",
			    "steps": [
				{
				    "color": "green",
				    "value": null
				},
				{
				    "color": "red",
				    "value": 80
				}
			    ]
			},
			"unit": "decmbytes"
		    },
		    "overrides": [
			{
			    "matcher": {
				"id": "byName",
				"options": "Bitrate"
			    },
			    "properties": [
				{
				    "id": "custom.axisPlacement",
				    "value": "right"
				}
			    ]
			},
			{
			    "matcher": {
				"id": "byName",
				"options": "Bitrate"
			    },
			    "properties": [
				{
				    "id": "unit",
				    "value": "Mbits"
				}
			    ]
			}
		    ]
		},
		"gridPos": {
		    "h": 8,
		    "w": 12,
		    "x": 0,
		    "y": 21
		},
		"id": 7,
		"options": {
		    "legend": {
			"calcs": [],
			"displayMode": "list",
			"placement": "bottom",
			"showLegend": true
		    },
		    "tooltip": {
			"mode": "multi",
			"sort": "none"
		    }
		},
		"targets": [
		    {
			"alias": "Bytes Transferred",
			"datasource": {
			    "type": "influxdb",
			    "uid": "OzcR1Jo4j"
			},
			"groupBy": [],
			"measurement": "iperf",
			"orderByTime": "ASC",
			"policy": "autogen",
			"refId": "A",
			"resultFormat": "time_series",
			"select": [
			    [
				{
				    "params": [
					"bw"
				    ],
				    "type": "field"
				}
			    ]
			],
			"tags": [
			    {
				"key": "host::tag",
				"operator": "=~",
				"value": "/^$Host$/"
			    }
			]
		    },
		    {
			"alias": "Bitrate",
			"datasource": {
			    "type": "influxdb",
			    "uid": "OzcR1Jo4j"
			},
			"groupBy": [],
			"hide": false,
			"measurement": "iperf",
			"orderByTime": "ASC",
			"policy": "autogen",
			"refId": "B",
			"resultFormat": "time_series",
			"select": [
			    [
				{
				    "params": [
					"bitrate"
				    ],
				    "type": "field"
				}
			    ]
			],
			"tags": [
			    {
				"key": "host::tag",
				"operator": "=~",
				"value": "/^$Host$/"
			    }
			]
		    }
		],
		"title": "iPerf Metrics",
		"type": "timeseries"
	    },
	    {
		"datasource": {
		    "type": "influxdb",
		    "uid": "OzcR1Jo4j"
		},
		"fieldConfig": {
		    "defaults": {
			"color": {
			    "mode": "palette-classic"
			},
			"custom": {
			    "axisCenteredZero": false,
			    "axisColorMode": "text",
			    "axisLabel": "",
			    "axisPlacement": "auto",
			    "barAlignment": 0,
			    "drawStyle": "line",
			    "fillOpacity": 0,
			    "gradientMode": "none",
			    "hideFrom": {
				"legend": false,
				"tooltip": false,
				"viz": false
			    },
			    "insertNulls": false,
			    "lineInterpolation": "linear",
			    "lineWidth": 1,
			    "pointSize": 5,
			    "scaleDistribution": {
				"type": "linear"
			    },
			    "showPoints": "auto",
			    "spanNulls": false,
			    "stacking": {
				"group": "A",
				"mode": "none"
			    },
			    "thresholdsStyle": {
				"mode": "off"
			    }
			},
			"mappings": [],
			"thresholds": {
			    "mode": "absolute",
			    "steps": [
				{
				    "color": "green",
				    "value": null
				},
				{
				    "color": "red",
				    "value": 80
				}
			    ]
			}
		    },
		    "overrides": [
			{
			    "matcher": {
				"id": "byName",
				"options": "Longitude"
			    },
			    "properties": [
				{
				    "id": "custom.axisPlacement",
				    "value": "right"
				}
			    ]
			},
			{
			    "matcher": {
				"id": "byName",
				"options": "Latitude"
			    },
			    "properties": [
				{
				    "id": "decimals",
				    "value": 5
				}
			    ]
			},
			{
			    "matcher": {
				"id": "byName",
				"options": "Longitude"
			    },
			    "properties": [
				{
				    "id": "decimals",
				    "value": 5
				}
			    ]
			}
		    ]
		},
		"gridPos": {
		    "h": 8,
		    "w": 12,
		    "x": 12,
		    "y": 21
		},
		"id": 3,
		"options": {
		    "legend": {
			"calcs": [],
			"displayMode": "list",
			"placement": "bottom",
			"showLegend": true
		    },
		    "tooltip": {
			"mode": "multi",
			"sort": "none"
		    }
		},
		"targets": [
		    {
			"alias": "Latitude",
			"datasource": {
			    "type": "influxdb",
			    "uid": "OzcR1Jo4j"
			},
			"groupBy": [],
			"hide": false,
			"measurement": "gpsd_tpv",
			"orderByTime": "ASC",
			"policy": "autogen",
			"refId": "A",
			"resultFormat": "time_series",
			"select": [
			    [
				{
				    "params": [
					"b'lat'"
				    ],
				    "type": "field"
				}
			    ]
			],
			"tags": [
			    {
				"key": "host::tag",
				"operator": "=~",
				"value": "/^$Host$/"
			    }
			]
		    },
		    {
			"alias": "Longitude",
			"datasource": {
			    "type": "influxdb",
			    "uid": "OzcR1Jo4j"
			},
			"groupBy": [],
			"hide": false,
			"measurement": "gpsd_tpv",
			"orderByTime": "ASC",
			"policy": "autogen",
			"refId": "B",
			"resultFormat": "time_series",
			"select": [
			    [
				{
				    "params": [
					"b'lon'"
				    ],
				    "type": "field"
				}
			    ]
			],
			"tags": [
			    {
				"key": "host::tag",
				"operator": "=~",
				"value": "/^$Host$/"
			    }
			]
		    }
		],
		"title": "Position",
		"type": "timeseries"
	    }
 	],
	"refresh": "10s",
	"schemaVersion": 0,
	"style": "dark",
	"tags": [],
	"templating": {
	    "list": [
		{
		    "datasource": {
			"type": "influxdb",
			"uid": "OzcR1Jo4j"
		    },
		    "definition": "Bus Host",
		    "hide": 0,
		    "includeAll": false,
		    "multi": false,
		    "name": "Host",
		    "options": [],
		    "query": "show tag values from gpsd_tpv with key = \"host\"",
		    "refresh": 1,
		    "regex": "",
		    "skipUrlSync": false,
		    "sort": 1,
		    "type": "query"
		}
	    ]
	},
	"time": {
	    "from": "now-5m",
	    "to": "now"
	},
	"timepicker": {},
	"timezone": "",
	"title": "UE Metrics",
	"uid": null,
	"version": 0,
	"weekStart": ""
    }	
}
